Description-md5 field unexpected in testsuite-XXXXXX/test/dists/sid/main/i18n/Translation-de (line 19)
p: 0, m: 0, s: 0, l: 0
File testsuite-XXXXXX/test/dists/sid/main/i18n/Translation-de has an invalid format
status: 1
